module gitlab.com/kandor-rp-ecosystem/kandor

go 1.21.1

require (
	github.com/go-ozzo/ozzo-validation v3.6.0+incompatible
	github.com/golang-jwt/jwt v3.2.2+incompatible
	github.com/joho/godotenv v1.5.1
	github.com/labstack/echo v3.3.10+incompatible
	github.com/uptrace/bun v1.1.16
	github.com/uptrace/bun/dialect/pgdialect v1.1.16
	github.com/uptrace/bun/driver/pgdriver v1.1.16
	github.com/uptrace/bun/extra/bundebug v1.1.16
	golang.org/x/crypto v0.14.0
)

require (
	github.com/asaskevich/govalidator v0.0.0-20230301143203-a9d515a09cc2 // indirect
	github.com/fatih/color v1.15.0 // indirect
	github.com/jinzhu/inflection v1.0.0 // indirect
	github.com/labstack/gommon v0.4.0 // indirect
	github.com/mattn/go-colorable v0.1.13 // indirect
	github.com/mattn/go-isatty v0.0.19 // indirect
	github.com/stretchr/testify v1.8.4 // indirect
	github.com/tmthrgd/go-hex v0.0.0-20190904060850-447a3041c3bc // indirect
	github.com/valyala/bytebufferpool v1.0.0 // indirect
	github.com/valyala/fasttemplate v1.2.2 // indirect
	github.com/vmihailenco/msgpack/v5 v5.3.5 // indirect
	github.com/vmihailenco/tagparser/v2 v2.0.0 // indirect
	golang.org/x/net v0.17.0 // indirect
	golang.org/x/sys v0.13.0 // indirect
	golang.org/x/text v0.13.0 // indirect
	mellium.im/sasl v0.3.1 // indirect
)
